^C:\USERS\ZZJ04\PROJECTS\ADVANCED-GRAPHICS-AND-COMPUTER-GAMES\ASSIGNMENTS\5\RAYTWO05-CLASS07NAVIGATIONREFLECTION\RAYTRACING01\RAYTRACING01\X64\DEBUG\BITMAPREADER.OBJ|C:\USERS\ZZJ04\PROJECTS\ADVANCED-GRAPHICS-AND-COMPUTER-GAMES\ASSIGNMENTS\5\RAYTWO05-CLASS07NAVIGATIONREFLECTION\RAYTRACING01\RAYTRACING01\X64\DEBUG\GRAPHICSDETAIL.OBJ|C:\USERS\ZZJ04\PROJECTS\ADVANCED-GRAPHICS-AND-COMPUTER-GAMES\ASSIGNMENTS\5\RAYTWO05-CLASS07NAVIGATIONREFLECTION\RAYTRACING01\RAYTRACING01\X64\DEBUG\OBJREADER.OBJ|C:\USERS\ZZJ04\PROJECTS\ADVANCED-GRAPHICS-AND-COMPUTER-GAMES\ASSIGNMENTS\5\RAYTWO05-CLASS07NAVIGATIONREFLECTION\RAYTRACING01\RAYTRACING01\X64\DEBUG\RAYTRACING01.OBJ
C:\USERS\ZZJ04\PROJECTS\ADVANCED-GRAPHICS-AND-COMPUTER-GAMES\ASSIGNMENTS\5\RAYTWO05-CLASS07NAVIGATIONREFLECTION\RAYTRACING01\X64\DEBUG\RAYTRACING01.ILK
C:\USERS\ZZJ04\PROJECTS\ADVANCED-GRAPHICS-AND-COMPUTER-GAMES\ASSIGNMENTS\5\RAYTWO05-CLASS07NAVIGATIONREFLECTION\RAYTRACING01\X64\DEBUG\RAYTRACING01.EXE
C:\USERS\ZZJ04\PROJECTS\ADVANCED-GRAPHICS-AND-COMPUTER-GAMES\ASSIGNMENTS\5\RAYTWO05-CLASS07NAVIGATIONREFLECTION\RAYTRACING01\X64\DEBUG\RAYTRACING01.PDB
